{
  "settingsVersion": "1.66",
  "exclusionRules": [
    {
      "pattern": "https?://mail.google.com/*",
      "passKeys": ""
    }
  ],
  "filterLinkHints": false,
  "waitForEnterForFilteredHints": true,
  "hideHud": false,
  "keyMappings": "# Insert your preferred key mappings here.",
  "linkHintCharacters": "sadfjklewcmpgh",
  "linkHintNumbers": "0123456789",
  "newTabUrl": "about:newtab",
  "nextPatterns": "next,more,newer,>,›,→,»,≫,>>",
  "previousPatterns": "prev,previous,back,older,<,‹,←,«,≪,<<",
  "regexFindMode": false,
  "ignoreKeyboardLayout": false,
  "scrollStepSize": 60,
  "smoothScroll": true,
  "grabBackFocus": false,
  "searchEngines": "w: https://www.wikipedia.org/w/index.php?title=Special:Search&search=%s Wikipedia\nb: https://search.brave.com/search?q=%s Brave\nd: https://duckduckgo.com/?q=%s DuckDuckGo\na: https://www.amazon.de/s?k=%s Amazon\narch: https://wiki.archlinux.org/index.php?search=%s archwiki\nebay: https://www.ebay-kleinanzeigen.de/s-%s/k0 ebay-kleinanzeigen\nimdb: https://www.imdb.com/find?q=%s IMDB\ndeepen: https://www.deepl.com/translator#de/en/%s DeepL DE->EN\ndeepde: https://www.deepl.com/translator#en/de/%s DeepL EN->DE\nosm: https://www.openstreetmap.org/search?query=%s OSM\n\n# More examples.\n#\n# (Vimium supports search completion Wikipedia, as\n# above, and for these.)\n#\n# g: https://www.google.com/search?q=%s Google\n# l: https://www.google.com/search?q=%s&btnI I'm feeling lucky...\n# y: https://www.youtube.com/results?search_query=%s Youtube\n# gm: https://www.google.com/maps?q=%s Google maps\n# b: https://www.bing.com/search?q=%s Bing\n# d: https://duckduckgo.com/?q=%s DuckDuckGo\n# az: https://www.amazon.com/s/?field-keywords=%s Amazon\n# qw: https://www.qwant.com/?q=%s Qwant",
  "searchUrl": "https://search.brave.com/search?q=",
  "userDefinedLinkHintCss": "div > .vimiumHintMarker {\n/* linkhint boxes */\nbackground: -webkit-gradient(linear, left top, left bottom, color-stop(0%,#FFF785),\n  color-stop(100%,#FFC542));\nborder: 1px solid #E3BE23;\n}\n\ndiv > .vimiumHintMarker span {\n/* linkhint text */\ncolor: black;\nfont-weight: bold;\nfont-size: 12px;\n}\n\ndiv > .vimiumHintMarker > .matchingCharacter {\n}"
}